<svg xmlns="http://www.w3.org/2000/svg" width="56" height="40" fill="none" viewBox="0 0 56 40">
    <path stroke="#888" d="M28 39.492H.5V.5h55v38.992H28z"/>
    <path stroke="#888" d="M25.366 21.728L1.322.5h53.356L30.634 21.728l-.002.001c-1.448 1.293-3.817 1.293-5.264 0l-.002-.001z"/>
    <path stroke="#888" stroke-width=".5" d="M14 .354l-8 5M22.5.5L10 8.498M30.5.5L14 11.498M38.5.5L19 14.155M47.5.5L23 17.776"/>
    <path fill="#F2C84B" d="M27 11.698c.969-2.183 3.109-4.2 5.684-4.2 3.467 0 5.964 2.821 6.278 6.182 0 0 .17.835-.203 2.337-.508 2.046-1.701 3.863-3.311 5.25L27 28.495l-8.447-7.228c-1.61-1.387-2.803-3.204-3.311-5.25-.373-1.502-.203-2.337-.203-2.337.314-3.361 2.81-6.181 6.278-6.181 2.574 0 4.714 2.016 5.683 4.199z"/>
    <path stroke="#888" d="M28.543 13.9L29 14.93l.457-1.03c.921-2.076 2.92-3.902 5.227-3.902 3.157 0 5.485 2.569 5.78 5.728l.002.027.005.023v.001l.003.017a3.65 3.65 0 0 1 .026.486c-.004.358-.05.904-.227 1.616-.48 1.934-1.611 3.665-3.151 4.991L29 29.838l-8.121-6.95c-1.54-1.326-2.672-3.057-3.152-4.991a7.062 7.062 0 0 1-.227-1.616 3.65 3.65 0 0 1 .026-.486l.003-.017.005-.024.003-.027c.295-3.159 2.623-5.728 5.78-5.728 2.306 0 4.304 1.826 5.226 3.902z"/>
</svg>
