<svg xmlns="http://www.w3.org/2000/svg" width="24" height="7" fill="none" viewBox="0 0 24 7">
    <path stroke="#222" stroke-linecap="round" stroke-linejoin="round" d="M20.5.5l3 3m0 0l-3 3m3-3H.5"/>
</svg>
