<svg xmlns="http://www.w3.org/2000/svg" width="30" height="40" fill="none" viewBox="0 0 30 40">
    <path fill="#D98E04" fill-rule="evenodd" d="M30 14.857c0 6.808-10.312 20.229-13.848 24.593-.28.348-.704.55-1.152.55-.448 0-.873-.202-1.152-.55C10.336 35.071 0 21.665 0 14.857 0 6.652 6.713 0 14.994 0c8.281 0 14.994 6.652 14.994 14.857H30z" clip-rule="evenodd"/>
    <path fill="#F2C84B" fill-rule="evenodd" d="M21 16a6 6 0 1 1-12 0 6 6 0 0 1 12 0z" clip-rule="evenodd"/>
</svg>
