<svg xmlns="http://www.w3.org/2000/svg" width="100" height="100" fill="none" viewBox="0 0 100 100">
    <path fill="#F2C84B" d="M52.917 57.5L41.25 19.167c-11.667 3.75-18.75 9.583-23.75 20L52.917 57.5z"/>
    <circle cx="50" cy="50" r="41.167" stroke="#222"/>
    <path stroke="#222" d="M54.167 54.583L42.5 16.25c-11.667 3.75-18.75 9.583-23.75 20l35.417 18.333zM44.583 22.5c-4.86.833-15.75 5.333-20.416 16.667M63.146 72.852l20.311-34.54c-10.659-6.047-19.747-7.31-30.799-3.937l10.488 38.477zM80.268 44.076c-3.904-3.013-14.588-7.98-26.088-3.74"/>
    <path stroke="#222" stroke-width=".5" d="M38.916 28.333a2.25 2.25 0 1 1-4.5 0 2.25 2.25 0 0 1 4.5 0z"/>
    <circle cx="41.666" cy="45.833" r="2.25" stroke="#222" stroke-width=".5"/>
    <path stroke="#222" stroke-width=".5" d="M46.417 35.833a1.417 1.417 0 1 1-2.834 0 1.417 1.417 0 0 1 2.834 0z"/>
    <ellipse cx="35.833" cy="37.5" fill="#222" rx=".833" ry=".833"/>
    <circle cx="49.167" cy="45.833" r=".833" fill="#222"/>
    <path stroke="#222" stroke-width=".5" d="M70.417 39.583L57.5 52.917M66.25 38.75l-9.584 9.583M61.667 38.75l-5.834 5.833M74.583 40.833L59.167 56.667M77.917 42.5L60 60.833M77.083 48.75l-16.25 17.083"/>
    <path stroke="#222" d="M44.737 65.057l-15.716-8.603c-1.462-.8-2.262.661-.8 1.462l15.716 8.603"/>
    <path stroke="#222" d="M56.606 66.804l-6.213-3.401c-4.752-2.601-10.45 5.205-4.602 8.406l6.213 3.401M46.895 67.189l7.31 4.001"/>
</svg>
