<svg xmlns="http://www.w3.org/2000/svg" width="100" height="100" fill="none" viewBox="0 0 100 100">
    <path fill="#F2C84B" d="M22.016 35H67.15l10.393 32.814c2.042 6.447-2.77 13.02-9.533 13.02H21.157c-6.763 0-11.575-6.573-9.534-13.02L22.016 35z"/>
    <path stroke="#222" d="M16.267 63.798l10.282-32.465H70.95l10.282 32.465c1.94 6.124-2.632 12.368-9.056 12.368H25.323c-6.424 0-10.996-6.243-9.056-12.368zM38.334 31.25c0-3.334 0-12.917 10.416-12.917 10.417 0 10.417 9.167 10.417 12.917"/>
    <path stroke="#000" stroke-linecap="round" stroke-linejoin="round" d="M92.251 30.233c0 3.026-4.583 8.99-6.154 10.93a.657.657 0 0 1-1.024 0c-1.561-1.946-6.155-7.904-6.155-10.93 0-3.647 2.984-6.603 6.664-6.603 3.68 0 6.664 2.956 6.664 6.603h.005z" clip-rule="evenodd"/>
    <path fill="#F2C84B" fill-rule="evenodd" d="M88.362 30.852a2.778 2.778 0 1 1-5.555 0 2.778 2.778 0 0 1 5.555 0z" clip-rule="evenodd"/>
</svg>
